Modeling spatially resolved omics with mistyR • mistyR
…
nn.view <- create_view("nearest", nnexpr, "nn")

nn.view
#> $nearest
#> $nearest$abbrev
#> [1] "nn"
#> 
#> $nearest$data
#> # A tibble: 4,205 × 7
#>      ECM protE protF  prodA  prodB  prodC  prodD
#>    <dbl> <dbl> <dbl>  <dbl>  <dbl>  <dbl>  <dbl>
#>  1 0.169 0.337 1.07  0.120  0.0138 0.146  0.165 
#>  2 0.346 0.676 0.549 0.0969 0.0140 0.190  0.0766
#>  3 0.219 0.304 0.495 0.0496 0.0288 0.236  0.0387
#>  4 0.238 0.607 0.651 0.132  0.0288 0.0954 0.122 
#>  5 0.313 0.688 0.835 0.166  0.0297 0.0837 0.173 
#>  6 0.527 0.743 0.616 0.0722 0.0184 0.135  0.0964
#>  7 0.278 0.399 0.501 0.0413 0.0632 0.160  0.0604
#>  8 0.266 0.537 0.624 0.0738 0.0463 0.154  0.117 
#>  9 0.356 0.564 0.565 0.0696 0.0415 0.208  0.106 
#> 10 0.625 0.863 0.458 0.0350 0.0823 0.230  0.0576
#> # ℹ 4,195 more rows
…
